,Training set,Features,Sigma,Mean rank of the native,Top 1,Top 5,Mean score for top 1,Mean loss score,Mean Pearson,Mean Spearman,Mean Kendall tau,PMCC,SMCC,wmPMCC,wmSMCC,Mean Z-score
GDT-TS-score,CASP 5-10,residue dependent backbone,0.0000,19.4951456311,0.111650485437,0.417475728155,0.579447087379,0.0589461165049,-0.465250156517,-0.437286934811,-0.314774046348,-0.234620999512,-0.243398088875,-0.52350648786,-0.473983953651,0.819798145058
GDT-TS-score,CASP 5-10,residue dependent backbone,0.0004,19.5631067961,0.116504854369,0.417475728155,0.579988349515,0.0584048543689,-0.465418029918,-0.437032833832,-0.31447234729,-0.234843903838,-0.243574735068,-0.523794315313,-0.473548950419,0.827681093936
GDT-TS-score,CASP 5-10,residue dependent backbone,0.0007,19.5776699029,0.121359223301,0.422330097087,0.580092718447,0.0583004854369,-0.465437614414,-0.437053255658,-0.314474953663,-0.234954633017,-0.243661243858,-0.523884068034,-0.473497127359,0.828838512772
GDT-TS-score,CASP 5-10,residue dependent backbone,0.0012,19.5582524272,0.121359223301,0.422330097087,0.580328640777,0.0580645631068,-0.465456290892,-0.437077091256,-0.314491460689,-0.235102096064,-0.243758329798,-0.52400274799,-0.47348542796,0.834293181006
GDT-TS-score,CASP 5-10,residue dependent backbone,0.0021,19.5485436893,0.121359223301,0.422330097087,0.579082038835,0.0593111650485,-0.465527009136,-0.437289794125,-0.314182262595,-0.235365001892,-0.243964928329,-0.524200006286,-0.473740524023,0.812938658882
GDT-TS-score,CASP 5-10,residue dependent backbone,0.0037,19.5097087379,0.116504854369,0.412621359223,0.57875776699,0.0596354368932,-0.465740206472,-0.437610899975,-0.314803550719,-0.235780250086,-0.244277212203,-0.524445578841,-0.474203056674,0.816801438529
GDT-TS-score,CASP 5-10,residue dependent backbone,0.0065,19.4174757282,0.126213592233,0.407766990291,0.577269417476,0.0611237864078,-0.466161823286,-0.438736243955,-0.315683350298,-0.235943162718,-0.244324382336,-0.524432692755,-0.47510348678,0.781071957265
GDT-TS-score,CASP 5-10,residue dependent backbone,0.0114,19.0339805825,0.126213592233,0.402912621359,0.579428640777,0.0589645631068,-0.466478537573,-0.439911498441,-0.316114510401,-0.235023383417,-0.243432663716,-0.523575253291,-0.475636026948,0.807808386402
GDT-TS-score,CASP 5-10,residue dependent backbone,0.0199,18.5388349515,0.126213592233,0.417475728155,0.576642718447,0.0617504854369,-0.46783687551,-0.44301107917,-0.317872154556,-0.235107426176,-0.243278829235,-0.524528784289,-0.477963910415,0.821848786263
GDT-TS-score,CASP 5-10,residue dependent backbone,0.0348,18.2330097087,0.135922330097,0.412621359223,0.579130097087,0.0592631067961,-0.470500121908,-0.44665040266,-0.320669478671,-0.23655144227,-0.244175221988,-0.527433158465,-0.481320679588,0.872128187401
GDT-TS-score,CASP 5-10,residue dependent backbone,0.0609,17.7621359223,0.140776699029,0.417475728155,0.581940291262,0.0564529126214,-0.472090492763,-0.449878741665,-0.323555315023,-0.237939791883,-0.245117880407,-0.529323040169,-0.486689839843,0.898904101963
GDT-TS-score,CASP 5-10,residue dependent backbone,0.1066,17.4174757282,0.140776699029,0.427184466019,0.583473300971,0.0549199029126,-0.472395566462,-0.45065166427,-0.324597796342,-0.240235058781,-0.246824271598,-0.529896659637,-0.4880942224,0.924301179197
GDT-TS-score,CASP 5-10,residue dependent backbone,0.1866,17.2378640777,0.140776699029,0.422330097087,0.585459708738,0.0529334951456,-0.472530712621,-0.451182799746,-0.325500585389,-0.246895023178,-0.252075093992,-0.530180417913,-0.489259560262,0.952792534428
GDT-TS-score,CASP 5-10,residue dependent backbone,0.3265,17.0388349515,0.145631067961,0.436893203883,0.585360679612,0.0530325242718,-0.472408649889,-0.449303083913,-0.32455194646,-0.262745288879,-0.265066545325,-0.530109589177,-0.487760499829,0.939426718817
GDT-TS-score,CASP 5-10,residue dependent backbone,0.5714,16.9514563107,0.140776699029,0.432038834951,0.583760194175,0.0546330097087,-0.471909764748,-0.448296977785,-0.324339662349,-0.278276572086,-0.278052102347,-0.529609537687,-0.486511517295,0.909573174333
GDT-TS-score,CASP 5-10,residue dependent backbone,1.0000,16.9126213592,0.145631067961,0.436893203883,0.58395,0.0544432038835,-0.471563082781,-0.447185207182,-0.323747890034,-0.285426918157,-0.284059296905,-0.529250996361,-0.485838411437,0.931634593931
